<?xml version="1.0" encoding="UTF-8"?>
<testng-results total="1" passed="1" failed="0" skipped="0">
  <reporter-output>
    <line>
      <![CDATA[Get User Details]]>
    </line>
    <line>
      <![CDATA[Configuration file - /Users/subramanyamkongani/eclipse-workspace/celos-api-automated-test/src/main/java/com/celos/qa/api/config/config.properties - successfully loaded]]>
    </line>
    <line>
      <![CDATA[>>>>>>>>>>>>>>>>>>>>>>>>>>>>>>>>>>>>>>]]>
    </line>
    <line>
      <![CDATA[Request Executed: {method=GET, uri=https://reqres.in/api/users, status=200, reason=OK}]]>
    </line>
    <line>
      <![CDATA[Response Headers: {CF-RAY=[7a73c846b8fb529d-CCU], Server=[cloudflare], Access-Control-Allow-Origin=[*], Connection=[keep-alive], Date=[Mon, 13 Mar 2023 11:02:02 GMT], Via=[1.1 vegur], Accept-Ranges=[bytes], CF-Cache-Status=[HIT], NEL=[{"success_fraction":0,"report_to":"cf-nel","max_age":604800}], Cache-Control=[max-age=14400], Etag=[W/"3e4-2RLXvr5wTg9YQ6aH95CkYoFNuO8"], Report-To=[{"endpoints":[{"url":"https:\/\/a.nel.cloudflare.com\/report\/v3?s=vYnWneFdP%2FJrGFU1dFRhMdODn21WvbFutq00sf5%2F3%2B5Yux%2FvLgEGpYl0WuZ7OxgfX1pUCgLB9n2JoRNzlHL6ucDJq4WIIJS%2FixZoYXaNC0hOS1npFaj3AHaBlg%3D%3D"}],"group":"cf-nel","max_age":604800}], Content-Length=[996], Age=[2354], X-Powered-By=[Express], Content-Type=[application/json; charset=utf-8]}]]>
    </line>
    <line>
      <![CDATA[Response Body: {"page":1,"per_page":6,"total":12,"total_pages":2,"data":[{"id":1,"email":"george.bluth@reqres.in","first_name":"George","last_name":"Bluth","avatar":"https://reqres.in/img/faces/1-image.jpg"},{"id":2,"email":"janet.weaver@reqres.in","first_name":"Janet","last_name":"Weaver","avatar":"https://reqres.in/img/faces/2-image.jpg"},{"id":3,"email":"emma.wong@reqres.in","first_name":"Emma","last_name":"Wong","avatar":"https://reqres.in/img/faces/3-image.jpg"},{"id":4,"email":"eve.holt@reqres.in","first_name":"Eve","last_name":"Holt","avatar":"https://reqres.in/img/faces/4-image.jpg"},{"id":5,"email":"charles.morris@reqres.in","first_name":"Charles","last_name":"Morris","avatar":"https://reqres.in/img/faces/5-image.jpg"},{"id":6,"email":"tracey.ramos@reqres.in","first_name":"Tracey","last_name":"Ramos","avatar":"https://reqres.in/img/faces/6-image.jpg"}],"support":{"url":"https://reqres.in/#support-heading","text":"To keep ReqRes free, contributions towards server costs are appreciated!"}}]]>
    </line>
    <line>
      <![CDATA[<<<<<<<<<<<<<<<<<<<<<<<<<<<<<<<<<<<<<<]]>
    </line>
    <line>
      <![CDATA[Get Users Details is completed]]>
    </line>
  </reporter-output>
  <suite started-at="2023-03-13T11:02:00Z" name="Default suite" finished-at="2023-03-13T11:02:01Z" duration-ms="1678">
    <groups>
    </groups>
    <test started-at="2023-03-13T11:02:00Z" name="Default test" finished-at="2023-03-13T11:02:01Z" duration-ms="1678">
      <class name="com.celos.qa.api.test.ApiGetRequestTest">
        <test-method signature="getRequestTest()[pri:0, instance:com.celos.qa.api.test.ApiGetRequestTest@732d0d24]" started-at="2023-03-13T16:32:00Z" name="getRequestTest" finished-at="2023-03-13T16:32:01Z" duration-ms="1667" status="PASS">
          <reporter-output>
            <line>
              <![CDATA[Get User Details]]>
            </line>
            <line>
              <![CDATA[Configuration file - /Users/subramanyamkongani/eclipse-workspace/celos-api-automated-test/src/main/java/com/celos/qa/api/config/config.properties - successfully loaded]]>
            </line>
            <line>
              <![CDATA[>>>>>>>>>>>>>>>>>>>>>>>>>>>>>>>>>>>>>>]]>
            </line>
            <line>
              <![CDATA[Request Executed: {method=GET, uri=https://reqres.in/api/users, status=200, reason=OK}]]>
            </line>
            <line>
              <![CDATA[Response Headers: {CF-RAY=[7a73c846b8fb529d-CCU], Server=[cloudflare], Access-Control-Allow-Origin=[*], Connection=[keep-alive], Date=[Mon, 13 Mar 2023 11:02:02 GMT], Via=[1.1 vegur], Accept-Ranges=[bytes], CF-Cache-Status=[HIT], NEL=[{"success_fraction":0,"report_to":"cf-nel","max_age":604800}], Cache-Control=[max-age=14400], Etag=[W/"3e4-2RLXvr5wTg9YQ6aH95CkYoFNuO8"], Report-To=[{"endpoints":[{"url":"https:\/\/a.nel.cloudflare.com\/report\/v3?s=vYnWneFdP%2FJrGFU1dFRhMdODn21WvbFutq00sf5%2F3%2B5Yux%2FvLgEGpYl0WuZ7OxgfX1pUCgLB9n2JoRNzlHL6ucDJq4WIIJS%2FixZoYXaNC0hOS1npFaj3AHaBlg%3D%3D"}],"group":"cf-nel","max_age":604800}], Content-Length=[996], Age=[2354], X-Powered-By=[Express], Content-Type=[application/json; charset=utf-8]}]]>
            </line>
            <line>
              <![CDATA[Response Body: {"page":1,"per_page":6,"total":12,"total_pages":2,"data":[{"id":1,"email":"george.bluth@reqres.in","first_name":"George","last_name":"Bluth","avatar":"https://reqres.in/img/faces/1-image.jpg"},{"id":2,"email":"janet.weaver@reqres.in","first_name":"Janet","last_name":"Weaver","avatar":"https://reqres.in/img/faces/2-image.jpg"},{"id":3,"email":"emma.wong@reqres.in","first_name":"Emma","last_name":"Wong","avatar":"https://reqres.in/img/faces/3-image.jpg"},{"id":4,"email":"eve.holt@reqres.in","first_name":"Eve","last_name":"Holt","avatar":"https://reqres.in/img/faces/4-image.jpg"},{"id":5,"email":"charles.morris@reqres.in","first_name":"Charles","last_name":"Morris","avatar":"https://reqres.in/img/faces/5-image.jpg"},{"id":6,"email":"tracey.ramos@reqres.in","first_name":"Tracey","last_name":"Ramos","avatar":"https://reqres.in/img/faces/6-image.jpg"}],"support":{"url":"https://reqres.in/#support-heading","text":"To keep ReqRes free, contributions towards server costs are appreciated!"}}]]>
            </line>
            <line>
              <![CDATA[<<<<<<<<<<<<<<<<<<<<<<<<<<<<<<<<<<<<<<]]>
            </line>
            <line>
              <![CDATA[Get Users Details is completed]]>
            </line>
          </reporter-output>
        </test-method> <!-- getRequestTest -->
      </class> <!-- com.celos.qa.api.test.ApiGetRequestTest -->
    </test> <!-- Default test -->
  </suite> <!-- Default suite -->
</testng-results>
